5 Fitting a diffusion model to data – Modeling Choice and RT
…
The example above is just one case in which we need to model a decision task by assuming that some parameters differ between conditions (like between targets and foils) while others stay the same (like the response boundaries and residual time). For example, we could simulate the situation above by assuming that \(v_1 = 0.5\) is the drift rate for targets while \(v_2 = -0.5\) is the drift rate for foils, while keeping \(a = 2\), \(w = 0.5\), and \(t_0 = 0.2\) constant:

Code

target_trials <- sampWiener(N = 80, a = 2, v = 0.5, w = 0.5, t0 = 0.2)
foil_trials <- sampWiener(N = 80, a = 2, v = -0.5, w = 0.5, t0 = 0.2)

(all_trials <- tibble(
    rt = c(target_trials$q, foil_trials$q),
    response = c(target_trials$response, foil_trials$response),
    item = factor(rep(c("Target", "Foil"), each = 80), levels = c("Target", "Foil"))
))

# A tibble: 160 × 3
      rt response item  
   <dbl> <chr>    <fct> 
 1 1.77  upper    Target
 2 1.95  upper    Target
 3 0.486 upper    Target
 4 0.396 upper    Target
 5 0.543 upper    Target
 6 1.40  upper    Target
 7 0.748 upper    Target
 8 0.721 upper    Target
 9 0.938 upper    Target
10 1.99  upper    Target
# ℹ 150 more rows
…
